{
  "project_info": {
    "project_number": "380182640815",
    "firebase_url": "https://ms-fix.firebaseio.com",
    "project_id": "ms-fix",
    "storage_bucket": "ms-fix.appspot.com"
  },
  "client": [
    {
      "client_info": {
        "mobilesdk_app_id": "1:380182640815:android:32ea59746132207f16fc5a",
        "android_client_info": {
          "package_name": "jbfeuzebio.com.ms_fix"
        }
      },
      "oauth_client": [
        {
          "client_id": "380182640815-kfpf7ns9njvb2cuu5k0kefaic1d8mefs.apps.googleusercontent.com",
          "client_type": 1,
          "android_info": {
            "package_name": "jbfeuzebio.com.ms_fix",
            "certificate_hash": "d529bfd4ae437dd9a42a98621cc0148c5030c0bd"
          }
        },
        {
          "client_id": "380182640815-84a07chnq3dh06lv4ph7s1cleldgq2de.apps.googleusercontent.com",
          "client_type": 3
        }
      ],
      "api_key": [
        {
          "current_key": "AIzaSyBlIJExjSG3qMTI0CKKFeVw40xLr55otNY"
        }
      ],
      "services": {
        "appinvite_service": {
          "other_platform_oauth_client": [
            {
              "client_id": "380182640815-84a07chnq3dh06lv4ph7s1cleldgq2de.apps.googleusercontent.com",
              "client_type": 3
            }
          ]
        }
      }
    }
  ],
  "configuration_version": "1"
}